{
  "name": "Todo App",
  "version": "1.0.0",
  "description": "Simple ToDo app",
  "apidoc": "0.3.0",
  "sampleUrl": false,
  "defaultVersion": "0.0.0",
  "generator": {
    "name": "apidoc",
    "time": "2021-06-04T11:39:02.981Z",
    "url": "https://apidocjs.com",
    "version": "0.27.1"
  }
}
